<svg xmlns="http://www.w3.org/2000/svg" width="21.087" height="24.898" viewBox="0 0 21.087 24.898">
    <defs>
        <style>
            .cls-1{fill:none;stroke-linecap:round;stroke-miterlimit:10;stroke:#515761}
        </style>
    </defs>
    <g id="Group_47598" data-name="Group 47598" transform="translate(-241.055 -706.15)">
        <g id="Group_47596" data-name="Group 47596" transform="translate(241.555 709.289)">
            <g id="Group_47595" data-name="Group 47595">
                <path id="Path_35729" data-name="Path 35729" class="cls-1" d="M241.555 712.436v4.645a6.978 6.978 0 0 0 5.916 6.889" transform="translate(-241.555 -711.622)"/>
                <path id="Path_35730" data-name="Path 35730" class="cls-1" d="M261.385 712.436v4.645a6.969 6.969 0 0 1-5.232 6.748" transform="translate(-247.442 -711.622)"/>
                <path id="Path_35731" data-name="Path 35731" class="cls-1" d="M264.442 729.126v5.493a5 5 0 0 1-4.994 4.995 5.61 5.61 0 0 1-5.611-5.6v-1.754" transform="translate(-246.508 -718.353)"/>
                <circle id="Ellipse_3149" data-name="Ellipse 3149" class="cls-1" cx="2.154" cy="2.154" r="2.154" transform="translate(15.78 8.62)"/>
                <path id="Path_35732" data-name="Path 35732" class="cls-1" d="M262.012 712.881a.814.814 0 0 1 0-1.287 2.1 2.1 0 0 1 1.051-.522c.644 0 .558.522.558 1.165s.086 1.165-.558 1.165a2.1 2.1 0 0 1-1.051-.521z" transform="translate(-249.678 -711.072)"/>
                <path id="Path_35733" data-name="Path 35733" class="cls-1" d="M253.645 732.427a.979.979 0 0 1-1.546 0c-.325-.417-.628-.618-.628-.978 0-.773-.122-.955 1.4-.955 1.4 0 1.4.182 1.4.955.001.36-.302.561-.626.978z" transform="translate(-245.553 -718.905)"/>
                <path id="Path_35734" data-name="Path 35734" class="cls-1" d="M243.17 713a.814.814 0 0 0 0-1.286 2.1 2.1 0 0 0-1.051-.522c-.643 0-.558.522-.558 1.165s-.085 1.165.558 1.165a2.1 2.1 0 0 0 1.051-.522z" transform="translate(-241.556 -711.12)"/>
                <circle id="Ellipse_3150" data-name="Ellipse 3150" cx=".613" cy=".613" r=".613" transform="translate(17.32 10.16)" style="fill:#505762;stroke:#515761"/>
            </g>
        </g>
        <rect id="Rectangle_9409" data-name="Rectangle 9409" class="cls-1" width="9.829" height="18.564" rx="2.047" transform="translate(243.485 706.65)"/>
        <path id="Line_1218" data-name="Line 1218" class="cls-1" transform="translate(247.032 708.51)" d="M0 0h1.772"/>
        <path id="Line_1219" data-name="Line 1219" class="cls-1" transform="translate(249.765 708.51)" d="M0 0h0"/>
    </g>
</svg>
