<svg xmlns="http://www.w3.org/2000/svg" width="21" height="17.081" viewBox="0 0 21 17.081">
    <defs>
        <style>
            .cls-1{fill:none;stroke:#515761;stroke-linecap:round;stroke-linejoin:round}
        </style>
    </defs>
    <g id="user-plus" transform="translate(-.5 -2.5)">
        <path id="Path_35798" data-name="Path 35798" class="cls-1" d="M14.4 20.36v-1.786A3.574 3.574 0 0 0 10.827 15H4.574A3.574 3.574 0 0 0 1 18.574v1.786" transform="translate(0 -1.279)"/>
        <circle id="Ellipse_3180" data-name="Ellipse 3180" class="cls-1" cx="3.574" cy="3.574" r="3.574" transform="translate(4.127 3)"/>
        <path id="Line_1269" data-name="Line 1269" class="cls-1" transform="translate(18 7)" d="M0 0v6"/>
        <path id="Line_1270" data-name="Line 1270" class="cls-1" transform="translate(15 10)" d="M6 0H0"/>
    </g>
</svg>
